[
{"Name":"Afghanistan","CountryISO":"AF"},
{"Name":"Aland Islands","CountryISO":"AX"},
{"Name":"Albania","CountryISO":"AL"},
{"Name":"Algeria","CountryISO":"DZ"},
{"Name":"American Samoa","CountryISO":"AS"},
{"Name":"Andorra","CountryISO":"AD"},
{"Name":"Angola","CountryISO":"AO"},
{"Name":"Anguilla","CountryISO":"AI"},
{"Name":"Antarctica","CountryISO":"AQ"},
{"Name":"Antigua and Barbuda","CountryISO":"AG"},
{"Name":"Argentina","CountryISO":"AR"},
{"Name":"Armenia","CountryISO":"AM"},
{"Name":"Aruba","CountryISO":"AW"},
{"Name":"Australia","CountryISO":"AU"},
{"Name":"Austria","CountryISO":"AT"},
{"Name":"Azerbaijan","CountryISO":"AZ"},
{"Name":"Bahamas","CountryISO":"BS"},
{"Name":"Bahrain","CountryISO":"BH"},
{"Name":"Bangladesh","CountryISO":"BD"},
{"Name":"Barbados","CountryISO":"BB"},
{"Name":"Belarus","CountryISO":"BY"},
{"Name":"Belgium","CountryISO":"BE"},
{"Name":"Belize","CountryISO":"BZ"},
{"Name":"Benin","CountryISO":"BJ"},
{"Name":"Bermuda","CountryISO":"BM"},
{"Name":"Bhutan","CountryISO":"BT"},
{"Name":"Bolivia","CountryISO":"BO"},
{"Name":"Bonaire, Sint Eustatius and Saba","CountryISO":"BQ"},
{"Name":"Bosnia and Herzegovina","CountryISO":"BA"},
{"Name":"Botswana","CountryISO":"BW"},
{"Name":"Bouvet Island","CountryISO":"BV"},
{"Name":"Brazil","CountryISO":"BR"},
{"Name":"British Indian Ocean Territory","CountryISO":"IO"},
{"Name":"Brunei Darussalam","CountryISO":"BN"},
{"Name":"Bulgaria","CountryISO":"BG"},
{"Name":"Burkina Faso","CountryISO":"BF"},
{"Name":"Burundi","CountryISO":"BI"},
{"Name":"Cambodia","CountryISO":"KH"},
{"Name":"Cameroon","CountryISO":"CM"},
{"Name":"Canada","CountryISO":"CA"},
{"Name":"Cape Verde","CountryISO":"CV"},
{"Name":"Cayman Islands","CountryISO":"KY"},
{"Name":"Central African Republic","CountryISO":"CF"},
{"Name":"Chad","CountryISO":"TD"},
{"Name":"Chile","CountryISO":"CL"},
{"Name":"China","CountryISO":"CN"},
{"Name":"Christmas Island","CountryISO":"CX"},
{"Name":"Cocos (Keeling) Islands","CountryISO":"CC"},
{"Name":"Colombia","CountryISO":"CO"},
{"Name":"Comoros","CountryISO":"KM"},
{"Name":"Congo","CountryISO":"CG"},
{"Name":"Congo, The Democratic Republic of ","CountryISO":"CD"},
{"Name":"Cook Islands","CountryISO":"CK"},
{"Name":"Costa Rica","CountryISO":"CR"},
{"Name":"Cote d'Ivoire","CountryISO":"CI"},
{"Name":"Croatia","CountryISO":"HR"},
{"Name":"Cuba","CountryISO":"CU"},
{"Name":"Curaçao","CountryISO":"CW"},
{"Name":"Cyprus","CountryISO":"CY"},
{"Name":"Czechia","CountryISO":"CZ"},
{"Name":"Denmark","CountryISO":"DK"},
{"Name":"Djibouti","CountryISO":"DJ"},
{"Name":"Dominica","CountryISO":"DM"},
{"Name":"Dominican Republic","CountryISO":"DO"},
{"Name":"Ecuador","CountryISO":"EC"},
{"Name":"Egypt","CountryISO":"EG"},
{"Name":"El Salvador","CountryISO":"SV"},
{"Name":"Equatorial Guinea","CountryISO":"GQ"},
{"Name":"Eritrea","CountryISO":"ER"},
{"Name":"Estonia","CountryISO":"EE"},
{"Name":"España","CountryISO":"ES"},
{"Name":"Ethiopia","CountryISO":"ET"},
{"Name":"Falkland Islands (Malvinas)","CountryISO":"FK"},
{"Name":"Faroe Islands","CountryISO":"FO"},
{"Name":"Fiji","CountryISO":"FJ"},
{"Name":"Finland","CountryISO":"FI"},
{"Name":"France","CountryISO":"FR"},
{"Name":"French Guiana","CountryISO":"GF"},
{"Name":"French Polynesia","CountryISO":"PF"},
{"Name":"French Southern Territories","CountryISO":"TF"},
{"Name":"Gabon","CountryISO":"GA"},
{"Name":"Gambia","CountryISO":"GM"},
{"Name":"Georgia","CountryISO":"GE"},
{"Name":"Germany","CountryISO":"DE"},
{"Name":"Ghana","CountryISO":"GH"},
{"Name":"Gibraltar","CountryISO":"GI"},
{"Name":"Greece","CountryISO":"GR"},
{"Name":"Greenland","CountryISO":"GL"},
{"Name":"Grenada","CountryISO":"GD"},
{"Name":"Guadeloupe","CountryISO":"GP"},
{"Name":"Guam","CountryISO":"GU"},
{"Name":"Guatemala","CountryISO":"GT"},
{"Name":"Guernsey","CountryISO":"GG"},
{"Name":"Guinea","CountryISO":"GN"},
{"Name":"Guinea-Bissau","CountryISO":"GW"},
{"Name":"Guyana","CountryISO":"GY"},
{"Name":"Haiti","CountryISO":"HT"},
{"Name":"Heard and Mc Donald Islands","CountryISO":"HM"},
{"Name":"Holy See (Vatican City State)","CountryISO":"VA"},
{"Name":"Honduras","CountryISO":"HN"},
{"Name":"Hong Kong","CountryISO":"HK"},
{"Name":"Hungary","CountryISO":"HU"},
{"Name":"Iceland","CountryISO":"IS"},
{"Name":"India","CountryISO":"IN"},
{"Name":"Indonesia","CountryISO":"ID"},
{"Name":"Iran, Islamic Republic of","CountryISO":"IR"},
{"Name":"Iraq","CountryISO":"IQ"},
{"Name":"Ireland","CountryISO":"IE"},
{"Name":"Isle of Man","CountryISO":"IM"},
{"Name":"Israel","CountryISO":"IL"},
{"Name":"Italy","CountryISO":"IT"},
{"Name":"Jamaica","CountryISO":"JM"},
{"Name":"Japan","CountryISO":"JP"},
{"Name":"Jersey","CountryISO":"JE"},
{"Name":"Jordan","CountryISO":"JO"},
{"Name":"Kazakstan","CountryISO":"KZ"},
{"Name":"Kenya","CountryISO":"KE"},
{"Name":"Kiribati","CountryISO":"KI"},
{"Name":"Korea, Democratic People's Republic of","CountryISO":"KP"},
{"Name":"Korea, Republic of","CountryISO":"KR"},
{"Name":"Kosovo (temporary code)","CountryISO":"XK"},
{"Name":"Kuwait","CountryISO":"KW"},
{"Name":"Kyrgyzstan","CountryISO":"KG"},
{"Name":"Lao, People's Democratic Republic","CountryISO":"LA"},
{"Name":"Latvia","CountryISO":"LV"},
{"Name":"Lebanon","CountryISO":"LB"},
{"Name":"Lesotho","CountryISO":"LS"},
{"Name":"Liberia","CountryISO":"LR"},
{"Name":"Libyan Arab Jamahiriya","CountryISO":"LY"},
{"Name":"Liechtenstein","CountryISO":"LI"},
{"Name":"Lithuania","CountryISO":"LT"},
{"Name":"Luxembourg","CountryISO":"LU"},
{"Name":"Macao","CountryISO":"MO"},
{"Name":"Macedonia, The Former Yugoslav Republic Of","CountryISO":"MK"},
{"Name":"Madagascar","CountryISO":"MG"},
{"Name":"Malawi","CountryISO":"MW"},
{"Name":"Malaysia","CountryISO":"MY"},
{"Name":"Maldives","CountryISO":"MV"},
{"Name":"Mali","CountryISO":"ML"},
{"Name":"Malta","CountryISO":"MT"},
{"Name":"Marshall Islands","CountryISO":"MH"},
{"Name":"Martinique","CountryISO":"MQ"},
{"Name":"Mauritania","CountryISO":"MR"},
{"Name":"Mauritius","CountryISO":"MU"},
{"Name":"Mayotte","CountryISO":"YT"},
{"Name":"Mexico","CountryISO":"MX"},
{"Name":"Micronesia, Federated States of","CountryISO":"FM"},
{"Name":"Moldova, Republic of","CountryISO":"MD"},
{"Name":"Monaco","CountryISO":"MC"},
{"Name":"Mongolia","CountryISO":"MN"},
{"Name":"Montenegro","CountryISO":"ME"},
{"Name":"Montserrat","CountryISO":"MS"},
{"Name":"Morocco","CountryISO":"MA"},
{"Name":"Mozambique","CountryISO":"MZ"},
{"Name":"Myanmar","CountryISO":"MM"},
{"Name":"Namibia","CountryISO":"NA"},
{"Name":"Nauru","CountryISO":"NR"},
{"Name":"Nepal","CountryISO":"NP"},
{"Name":"Netherlands","CountryISO":"NL"},
{"Name":"Netherlands Antilles","CountryISO":"AN"},
{"Name":"New Caledonia","CountryISO":"NC"},
{"Name":"New Zealand","CountryISO":"NZ"},
{"Name":"Nicaragua","CountryISO":"NI"},
{"Name":"Niger","CountryISO":"NE"},
{"Name":"Nigeria","CountryISO":"NG"},
{"Name":"Niue","CountryISO":"NU"},
{"Name":"Norfolk Island","CountryISO":"NF"},
{"Name":"Northern Mariana Islands","CountryISO":"MP"},
{"Name":"Norway","CountryISO":"NO"},
{"Name":"Oman","CountryISO":"OM"},
{"Name":"Pakistan","CountryISO":"PK"},
{"Name":"Palau","CountryISO":"PW"},
{"Name":"Palestinian Territory, Occupied","CountryISO":"PS"},
{"Name":"Panama","CountryISO":"PA"},
{"Name":"Papua New Guinea","CountryISO":"PG"},
{"Name":"Paraguay","CountryISO":"PY"},
{"Name":"Peru","CountryISO":"PE"},
{"Name":"Philippines","CountryISO":"PH"},
{"Name":"Pitcairn","CountryISO":"PN"},
{"Name":"Poland","CountryISO":"PL"},
{"Name":"Portugal","CountryISO":"PT"},
{"Name":"Puerto Rico","CountryISO":"PR"},
{"Name":"Qatar","CountryISO":"QA"},
{"Name":"Republic of Serbia","CountryISO":"RS"},
{"Name":"Reunion","CountryISO":"RE"},
{"Name":"Romania","CountryISO":"RO"},
{"Name":"Russia Federation","CountryISO":"RU"},
{"Name":"Rwanda","CountryISO":"RW"},
{"Name":"Saint Barthélemy","CountryISO":"BL"},
{"Name":"Saint Helena","CountryISO":"SH"},
{"Name":"Saint Kitts & Nevis","CountryISO":"KN"},
{"Name":"Saint Lucia","CountryISO":"LC"},
{"Name":"Saint Martin","CountryISO":"MF"},
{"Name":"Saint Pierre and Miquelon","CountryISO":"PM"},
{"Name":"Saint Vincent and the Grenadines","CountryISO":"VC"},
{"Name":"Samoa","CountryISO":"WS"},
{"Name":"San Marino","CountryISO":"SM"},
{"Name":"Sao Tome and Principe","CountryISO":"ST"},
{"Name":"Saudi Arabia","CountryISO":"SA"},
{"Name":"Senegal","CountryISO":"SN"},
{"Name":"Serbia and Montenegro","CountryISO":"CS"},
{"Name":"Seychelles","CountryISO":"SC"},
{"Name":"Sierra Leone","CountryISO":"SL"},
{"Name":"Singapore","CountryISO":"SG"},
{"Name":"Sint Maarten","CountryISO":"SX"},
{"Name":"Slovakia","CountryISO":"SK"},
{"Name":"Slovenia","CountryISO":"SI"},
{"Name":"Solomon Islands","CountryISO":"SB"},
{"Name":"Somalia","CountryISO":"SO"},
{"Name":"South Africa","CountryISO":"ZA"},
{"Name":"South Georgia & The South Sandwich Islands","CountryISO":"GS"},
{"Name":"South Sudan","CountryISO":"SS"},
{"Name":"Sri Lanka","CountryISO":"LK"},
{"Name":"Sudan","CountryISO":"SD"},
{"Name":"Suriname","CountryISO":"SR"},
{"Name":"Svalbard and Jan Mayen","CountryISO":"SJ"},
{"Name":"Swaziland","CountryISO":"SZ"},
{"Name":"Sweden","CountryISO":"SE"},
{"Name":"Switzerland","CountryISO":"CH"},
{"Name":"Syrian Arab Republic","CountryISO":"SY"},
{"Name":"Taiwan, Province of China","CountryISO":"TW"},
{"Name":"Tajikistan","CountryISO":"TJ"},
{"Name":"Tanzania, United Republic of","CountryISO":"TZ"},
{"Name":"Thailand","CountryISO":"TH"},
{"Name":"Timor-Leste","CountryISO":"TL"},
{"Name":"Togo","CountryISO":"TG"},
{"Name":"Tokelau","CountryISO":"TK"},
{"Name":"Tonga","CountryISO":"TO"},
{"Name":"Trinidad and Tobago","CountryISO":"TT"},
{"Name":"Tunisia","CountryISO":"TN"},
{"Name":"Turkey","CountryISO":"TR"},
{"Name":"Turkish Rep N Cyprus (temporary code)","CountryISO":"XT"},
{"Name":"Turkmenistan","CountryISO":"TM"},
{"Name":"Turks and Caicos Islands","CountryISO":"TC"},
{"Name":"Tuvalu","CountryISO":"TV"},
{"Name":"Uganda","CountryISO":"UG"},
{"Name":"Ukraine","CountryISO":"UA"},
{"Name":"United Arab Emirates","CountryISO":"AE"},
{"Name":"United Kingdom","CountryISO":"GB"},
{"Name":"United States","CountryISO":"US"},
{"Name":"United States Minor Outlying Islands","CountryISO":"UM"},
{"Name":"Uruguay","CountryISO":"UY"},
{"Name":"Uzbekistan","CountryISO":"UZ"},
{"Name":"Vanuatu","CountryISO":"VU"},
{"Name":"Venezuela","CountryISO":"VE"},
{"Name":"Vietnam","CountryISO":"VN"},
{"Name":"Virgin Islands, British","CountryISO":"VG"},
{"Name":"Virgin Islands, U.S.","CountryISO":"VI"},
{"Name":"Wallis and Futuna","CountryISO":"WF"},
{"Name":"Western Sahara","CountryISO":"EH"},
{"Name":"Yemen","CountryISO":"YE"},
{"Name":"Zambia","CountryISO":"ZM"},
{"Name":"Zimbabwe","CountryISO":"ZW"}
]
